Regression in R
…
diamonds <- diamonds %>%
  sample_n(1000) %>%
  mutate(across(where(is.factor), 
         as.character))

Regression specification in R is handled by a function notation based on Symbolic Description of Factorial Models for Analysis of Variance by G.N. Wilkinson and C.E. Rogers. Its concise and flexible. The following examples will demonstrate the notation through the model matrix:

2.1 More variables

+ can be used to add additional predictor variables:

model_matrix(formula = price ~ carat + x, data = diamonds)

## # A tibble: 1,000 x 3
##    `(Intercept)` carat     x
##            <dbl> <dbl> <dbl>
##  1             1  0.7   5.65
##  2             1  1.52  7.38
##  3             1  0.31  4.35
##  4             1  0.71  5.8 
##  5             1  2.07  8.12
##  6             1  1     6.43
##  7             1  1.2   6.87
##  8             1  0.52  5.12
##  9             1  0.65  5.54
## 10             1  0.49  5.09
## #  with 990 more rows

2.2 Categorical variables

factor() can be used to add character variables as \(n - 1\) dummy variables:

model_matrix(formula = price ~ carat + factor(color), data = diamonds)

## # A tibble: 1,000 x 8
##    `(Intercept)` carat `factor(color)E` `factor(color)F` `factor(color)G`
##            <dbl> <dbl>            <dbl>            <dbl>            <dbl>
##  1             1  0.7                 0                0                0
##  2             1  1.52                0                0                0
##  3             1  0.31                0                0                0
##  4             1  0.71                0                0                0
##  5             1  2.07                0                0                0
##  6             1  1                   1                0                0
##  7             1  1.2                 0                0                1
##  8             1  0.52                0                0                0
##  9             1  0.65                0                0                1
## 10             1  0.49                0                1                0
## #  with 990 more rows, and 3 more variables: `factor(color)H` <dbl>,
## #   `factor(color)I` <dbl>, `factor(color)J` <dbl>

2.3 Transformations

log() and sqrt() can be used to transform variables directly. Transformations that use +, -, *, /, ^, logical operators need to be wrapped in I().

model_matrix(formula = log(price) ~ sqrt(x) + I(y / 1000) + I(z > 1), data = diamonds)

## # A tibble: 1,000 x 4
##    `(Intercept)` `sqrt(x)` `I(y/1000)` `I(z > 1)TRUE`
##            <dbl>     <dbl>       <dbl>          <dbl>
##  1             1      2.38     0.00567              1
##  2             1      2.72     0.00741              1
##  3             1      2.09     0.00439              1
##  4             1      2.41     0.00583              1
##  5             1      2.85     0.00822              1
##  6             1      2.54     0.0064               1
##  7             1      2.62     0.00688              1
##  8             1      2.26     0.00509              1
##  9             1      2.35     0.00547              1
## 10             1      2.26     0.00504              1
## #  with 990 more rows

2.4 Interactions

* (without I()) can be used to add interactions. Main effects will automatically be added. Interactions can occur between any combination of continuous and categorical variables. : indicates an interation.

model_matrix(formula = price ~ carat * cut, data = diamonds)

## # A tibble: 1,000 x 10
##    `(Intercept)` carat cutGood cutIdeal cutPremium `cutVery Good`
##            <dbl> <dbl>   <dbl>    <dbl>      <dbl>          <dbl>
##  1             1  0.7        0        0          0              1
##  2             1  1.52       0        1          0              0
##  3             1  0.31       0        1          0              0
##  4             1  0.71       0        1          0              0
##  5             1  2.07       0        1          0              0
##  6             1  1          0        1          0              0
##  7             1  1.2        0        1          0              0
##  8             1  0.52       1        0          0              0
##  9             1  0.65       0        0          0              1
## 10             1  0.49       0        0          1              0
## #  with 990 more rows, and 4 more variables: `carat:cutGood` <dbl>,
## #   `carat:cutIdeal` <dbl>, `carat:cutPremium` <dbl>, `carat:cutVery
## #   Good` <dbl>

An nth degree polynomial and all lower-order polynomials can be added with poly(). Note, the default behavior is to add orthonormal predictors. Add raw = TRUE to skips the orthnormal transformation.

model_matrix(formula = price ~ poly(carat, degree = 3, raw = TRUE), data = diamonds)

## # A tibble: 1,000 x 4
##    `(Intercept)` `poly(carat, degree  `poly(carat, degree `poly(carat, degree
##            <dbl>                 <dbl>                <dbl>                <dbl>
##  1             1                  0.7                0.490                0.343 
##  2             1                  1.52               2.31                 3.51  
##  3             1                  0.31               0.0961               0.0298
##  4             1                  0.71               0.504                0.358 
##  5             1                  2.07               4.28                 8.87  
##  6             1                  1                  1                    1     
##  7             1                  1.2                1.44                 1.73  
##  8             1                  0.52               0.270                0.141 
##  9             1                  0.65               0.423                0.275 
## 10             1                  0.49               0.240                0.118 
## #  with 990 more rows

Natural splines can be added with splines::ns()

model_matrix(formula = price ~ splines::ns(carat, df = 9), data = diamonds)

## # A tibble: 1,000 x 10
##    `(Intercept)` `splines::ns(ca `splines::ns(ca `splines::ns(ca
##            <dbl>            <dbl>            <dbl>            <dbl>
##  1             1           0              0.00240             0.482
##  2             1           0              0                   0    
##  3             1           0.205          0                   0    
##  4             1           0              0.000710            0.439
##  5             1           0              0                   0    
##  6             1           0              0                   0    
##  7             1           0              0                   0    
##  8             1           0.0672         0.625               0.307
##  9             1           0              0.0454              0.670
## 10             1           0.195          0.654               0.151
## #  with 990 more rows, and 6 more variables: `splines::ns(carat, df =
## #   9)4` <dbl>, `splines::ns(carat, df = 9)5` <dbl>, `splines::ns(carat, df =
## #   9)6` <dbl>, `splines::ns(carat, df = 9)7` <dbl>, `splines::ns(carat, df =
## #   9)8` <dbl>, `splines::ns(carat, df = 9)9` <dbl>

2.5 Dropping the intercept

The intercept term can be dropped with - 1.

model_matrix(formula = price ~ carat + color - 1, data = diamonds)

## # A tibble: 1,000 x 8
##    carat colorD colorE colorF colorG colorH colorI colorJ
##    <dbl>  <dbl>  <dbl>  <dbl>  <dbl>  <dbl>  <dbl>  <dbl>
##  1  0.7       0      0      0      0      0      1      0
##  2  1.52      0      0      0      0      0      1      0
##  3  0.31      0      0      0      0      1      0      0
##  4  0.71      1      0      0      0      0      0      0
##  5  2.07      0      0      0      0      0      1      0
##  6  1         0      1      0      0      0      0      0
##  7  1.2       0      0      0      1      0      0      0
##  8  0.52      0      0      0      0      1      0      0
##  9  0.65      0      0      0      1      0      0      0
## 10  0.49      0      0      1      0      0      0      0
## #  with 990 more rows
…
4 library(modelr)

library(modelr) has many useful functions for modeling. It works with more types of models than just linear models from lm().

4.1 add_predictions()

add_predictions() adds predictions to a data set using an estimated model object.

add_predictions(data = diamonds, model = diamonds_model1)

## # A tibble: 1,000 x 12
##    carat cut    color clarity depth table price     x     y     z new_var   pred
##    <dbl> <chr>  <chr> <chr>   <dbl> <dbl> <int> <dbl> <dbl> <dbl>   <dbl>  <dbl>
##  1  0.7  Very  I     VVS1     62.9    58  2513  5.65  5.67  3.56    17.0  3074.
##  2  1.52 Ideal  I     SI2      61.7    57  7582  7.38  7.41  4.56    22.2 10173.
##  3  0.31 Ideal  H     SI1      61.3    55   421  4.35  4.39  2.68    13.1   390.
##  4  0.71 Ideal  D     VS2      59.9    57  3540  5.8   5.83  3.48    17.4  3624.
##  5  2.07 Ideal  I     SI2      62      55 16189  8.12  8.22  5.07    24.5 14620.
##  6  1    Ideal  E     SI2      61.9    56  4760  6.43  6.4   3.97    19.3  5969.
##  7  1.2  Ideal  G     SI1      61.2    56  7920  6.87  6.88  4.21    20.6  7586.
##  8  0.52 Good   H     VS2      63.7    54  1385  5.12  5.09  3.25    15.3  1311.
##  9  0.65 Very  G     VS2      63.2    57  2009  5.54  5.47  3.48    16.6  2670.
## 10  0.49 Premi F     SI2      62.2    59  1073  5.09  5.04  3.15    15.2  1317.
## #  with 990 more rows

4.2 add_residuals()

add_residuals() adds residuals to a data set using an estimated model object.

add_residuals(data = diamonds, model = diamonds_model1)

## # A tibble: 1,000 x 12
##    carat cut   color clarity depth table price     x     y     z new_var   resid
##    <dbl> <chr> <chr> <chr>   <dbl> <dbl> <int> <dbl> <dbl> <dbl>   <dbl>   <dbl>
##  1  0.7  Very I     VVS1     62.9    58  2513  5.65  5.67  3.56    17.0  -561. 
##  2  1.52 Ideal I     SI2      61.7    57  7582  7.38  7.41  4.56    22.2 -2591. 
##  3  0.31 Ideal H     SI1      61.3    55   421  4.35  4.39  2.68    13.1    30.7
##  4  0.71 Ideal D     VS2      59.9    57  3540  5.8   5.83  3.48    17.4   -84.3
##  5  2.07 Ideal I     SI2      62      55 16189  8.12  8.22  5.07    24.5  1569. 
##  6  1    Ideal E     SI2      61.9    56  4760  6.43  6.4   3.97    19.3 -1209. 
##  7  1.2  Ideal G     SI1      61.2    56  7920  6.87  6.88  4.21    20.6   334. 
##  8  0.52 Good  H     VS2      63.7    54  1385  5.12  5.09  3.25    15.3    73.8
##  9  0.65 Very G     VS2      63.2    57  2009  5.54  5.47  3.48    16.6  -661. 
## 10  0.49 Prem F     SI2      62.2    59  1073  5.09  5.04  3.15    15.2  -244. 
## #  with 990 more rows

4.3 data_grid()

data_grid() creates an evenly-spaced grid of points using the range of observed predictors in a data set. This is useful for visualization and is really, really useful for understanding generalized linear models.

data_grid(data = diamonds, carat, cut) %>%
  add_predictions(diamonds_model1)

## # A tibble: 765 x 3
##    carat cut         pred
##    <dbl> <chr>      <dbl>
##  1  0.2  Fair      -2300.
##  2  0.2  Good      -1276.
##  3  0.2  Ideal      -499.
##  4  0.2  Premium   -1028.
##  5  0.2  Very Good  -968.
##  6  0.23 Fair      -2058.
##  7  0.23 Good      -1033.
##  8  0.23 Ideal      -256.
##  9  0.23 Premium    -785.
## 10  0.23 Very Good  -726.
## #  with 755 more rows
…
5.3 augment()

augment() returns observation-level diagnostics like residuals and hat values.

augment(diamonds_model1)

## # A tibble: 1,000 x 10
##    price carat cut    .fitted .se.fit  .resid    .hat .sigma  .cooksd .std.resid
##    <int> <dbl> <chr>    <dbl>   <dbl>   <dbl>   <dbl>  <dbl>    <dbl>      <dbl>
##  1  2513  0.7  Very    3074.    97.4  -561.  0.00449  1455.  1.12e-4    -0.387 
##  2  7582  1.52 Ideal   10173.   107.  -2591.  0.00539  1453.  2.88e-3    -1.79  
##  3   421  0.31 Ideal     390.    82.7    30.7 0.00324  1455.  2.42e-7     0.0211
##  4  3540  0.71 Ideal    3624.    72.4   -84.3 0.00248  1455.  1.40e-6    -0.0580
##  5 16189  2.07 Ideal   14620.   151.   1569.  0.0107   1454.  2.13e-3     1.09  
##  6  4760  1    Ideal    5969.    77.5 -1209.  0.00284  1454.  3.29e-4    -0.833 
##  7  7920  1.2  Ideal    7586.    86.4   334.  0.00353  1455.  3.13e-5     0.230 
##  8  1385  0.52 Good     1311.   165.     73.8 0.0128   1455.  5.66e-6     0.0511
##  9  2009  0.65 Very    2670.    98.0  -661.  0.00454  1455.  1.58e-4    -0.455 
## 10  1073  0.49 Premi   1317.   100.   -244.  0.00473  1455.  2.24e-5    -0.168 
## #  with 990 more rows
…
