Intro to R - 5 Iteration (or becoming an R Superhero)
…
You want to read in many different .csv files.

8 Vectorization

There is less need to write code for control flow in R. First, everything is vectorized so there is rarely a need to iterate to manipulate a vector.

1:10 * 2

 [1]  2  4  6  8 10 12 14 16 18 20

diamonds %>%
  select(carat, price) %>%
  mutate(price_canadian = price * 1.31)

# A tibble: 53,940 × 3
   carat price price_canadian
   <dbl> <int>          <dbl>
 1  0.23   326           427.
 2  0.21   326           427.
 3  0.23   327           428.
 4  0.29   334           438.
 5  0.31   335           439.
 6  0.24   336           440.
 7  0.24   336           440.
 8  0.26   337           441.
 9  0.22   337           441.
10  0.23   338           443.
# ℹ 53,930 more rows
…
  mutate(
    mpg = round(mpg),
    cyl = round(cyl),
    disp = round(disp),
    hp = round(hp),
    drat = round(drat),
    wt = round(wt),
    qsec = round(qsec),
    vs = round(vs),
    am = round(am),
    gear = round(gear),
    carb = round(carb)
  )

# A tibble: 32 × 11
     mpg   cyl  disp    hp  drat    wt  qsec    vs    am  gear  carb
   <dbl> <dbl> <dbl> <dbl> <dbl> <dbl> <dbl> <dbl> <dbl> <dbl> <dbl>
 1    21     6   160   110     4     3    16     0     1     4     4
 2    21     6   160   110     4     3    17     0     1     4     4
 3    23     4   108    93     4     2    19     1     1     4     1
 4    21     6   258   110     3     3    19     1     0     3     1
 5    19     8   360   175     3     3    17     0     0     3     2
 6    18     6   225   105     3     3    20     1     0     3     1
 7    14     8   360   245     3     4    16     0     0     3     4
 8    24     4   147    62     4     3    20     1     0     4     2
 9    23     4   141    95     4     3    23     1     0     4     2
10    19     6   168   123     4     3    18     1     0     4     4
# ℹ 22 more rows

Or we can let across() do the work for us. All we have to do is pass the function we want applied to all columns of our data frame:

mtcars %>%
  mutate(across(.cols = everything(), .fns = round))

# A tibble: 32 × 11
     mpg   cyl  disp    hp  drat    wt  qsec    vs    am  gear  carb
   <dbl> <dbl> <dbl> <dbl> <dbl> <dbl> <dbl> <dbl> <dbl> <dbl> <dbl>
 1    21     6   160   110     4     3    16     0     1     4     4
 2    21     6   160   110     4     3    17     0     1     4     4
 3    23     4   108    93     4     2    19     1     1     4     1
 4    21     6   258   110     3     3    19     1     0     3     1
 5    19     8   360   175     3     3    17     0     0     3     2
 6    18     6   225   105     3     3    20     1     0     3     1
 7    14     8   360   245     3     4    16     0     0     3     4
 8    24     4   147    62     4     3    20     1     0     4     2
 9    23     4   141    95     4     3    23     1     0     4     2
10    19     6   168   123     4     3    18     1     0     4     4
# ℹ 22 more rows

To supply your own expression, we can write our own function and pass it through to across():

divide_by_ten <- function(x) {
  new_x <- x / 10

  return(new_x)
}

mtcars %>%
  mutate(across(.cols = everything(), .fns = divide_by_ten))

# A tibble: 32 × 11
     mpg   cyl  disp    hp  drat    wt  qsec    vs    am  gear  carb
   <dbl> <dbl> <dbl> <dbl> <dbl> <dbl> <dbl> <dbl> <dbl> <dbl> <dbl>
 1  2.1    0.6  16    11   0.39  0.262  1.65   0     0.1   0.4   0.4
 2  2.1    0.6  16    11   0.39  0.288  1.70   0     0.1   0.4   0.4
 3  2.28   0.4  10.8   9.3 0.385 0.232  1.86   0.1   0.1   0.4   0.1
 4  2.14   0.6  25.8  11   0.308 0.322  1.94   0.1   0     0.3   0.1
 5  1.87   0.8  36    17.5 0.315 0.344  1.70   0     0     0.3   0.2
 6  1.81   0.6  22.5  10.5 0.276 0.346  2.02   0.1   0     0.3   0.1
 7  1.43   0.8  36    24.5 0.321 0.357  1.58   0     0     0.3   0.4
 8  2.44   0.4  14.7   6.2 0.369 0.319  2      0.1   0     0.4   0.2
 9  2.28   0.4  14.1   9.5 0.392 0.315  2.29   0.1   0     0.4   0.2
10  1.92   0.6  16.8  12.3 0.392 0.344  1.83   0.1   0     0.4   0.4
# ℹ 22 more rows

Or we can write it inline using the following syntax where ~ lets dplyr know to expect an inline function, and . is used as a placeholder for the variable.

mtcars %>%
  mutate(across(.cols = everything(), .fns = ~ . / 10))

# A tibble: 32 × 11
     mpg   cyl  disp    hp  drat    wt  qsec    vs    am  gear  carb
   <dbl> <dbl> <dbl> <dbl> <dbl> <dbl> <dbl> <dbl> <dbl> <dbl> <dbl>
 1  2.1    0.6  16    11   0.39  0.262  1.65   0     0.1   0.4   0.4
 2  2.1    0.6  16    11   0.39  0.288  1.70   0     0.1   0.4   0.4
 3  2.28   0.4  10.8   9.3 0.385 0.232  1.86   0.1   0.1   0.4   0.1
 4  2.14   0.6  25.8  11   0.308 0.322  1.94   0.1   0     0.3   0.1
 5  1.87   0.8  36    17.5 0.315 0.344  1.70   0     0     0.3   0.2
 6  1.81   0.6  22.5  10.5 0.276 0.346  2.02   0.1   0     0.3   0.1
 7  1.43   0.8  36    24.5 0.321 0.357  1.58   0     0     0.3   0.4
 8  2.44   0.4  14.7   6.2 0.369 0.319  2      0.1   0     0.4   0.2
 9  2.28   0.4  14.1   9.5 0.392 0.315  2.29   0.1   0     0.4   0.2
10  1.92   0.6  16.8  12.3 0.392 0.344  1.83   0.1   0     0.4   0.4
# ℹ 22 more rows
…
And then write a lot of repetitive mutate() statements again. Instead let’s use where() as follows:

diamonds %>%
  mutate(across(.cols = where(is.numeric), .fns = log))

# A tibble: 53,940 × 10
   carat cut       color clarity depth table price     x     y     z
   <dbl> <ord>     <ord> <ord>   <dbl> <dbl> <dbl> <dbl> <dbl> <dbl>
 1 -1.47 Ideal     E     SI2      4.12  4.01  5.79  1.37  1.38 0.888
 2 -1.56 Premium   E     SI1      4.09  4.11  5.79  1.36  1.35 0.837
 3 -1.47 Good      E     VS1      4.04  4.17  5.79  1.40  1.40 0.837
 4 -1.24 Premium   I     VS2      4.13  4.06  5.81  1.44  1.44 0.967
 5 -1.17 Good      J     SI2      4.15  4.06  5.81  1.47  1.47 1.01 
 6 -1.43 Very Good J     VVS2     4.14  4.04  5.82  1.37  1.38 0.908
 7 -1.43 Very Good I     VVS1     4.13  4.04  5.82  1.37  1.38 0.904
 8 -1.35 Very Good H     SI1      4.13  4.01  5.82  1.40  1.41 0.928
 9 -1.51 Fair      E     VS2      4.18  4.11  5.82  1.35  1.33 0.912
10 -1.47 Very Good H     VS1      4.08  4.11  5.82  1.39  1.40 0.871
# ℹ 53,930 more rows

When using the where() with across(), we first supply the condition that must be met, and then the function to apply to the columns that meet that condition. So in the above example, we first test if a column is.numeric, and then apply log to those that are.

We can use select() and where() to subset only those columns that are numeric:

diamonds %>%
  select(where(is.numeric))

# A tibble: 53,940 × 7
   carat depth table price     x     y     z
   <dbl> <dbl> <dbl> <int> <dbl> <dbl> <dbl>
 1  0.23  61.5    55   326  3.95  3.98  2.43
 2  0.21  59.8    61   326  3.89  3.84  2.31
 3  0.23  56.9    65   327  4.05  4.07  2.31
 4  0.29  62.4    58   334  4.2   4.23  2.63
 5  0.31  63.3    58   335  4.34  4.35  2.75
 6  0.24  62.8    57   336  3.94  3.96  2.48
 7  0.24  62.3    57   336  3.95  3.98  2.47
 8  0.26  61.9    55   337  4.07  4.11  2.53
 9  0.22  65.1    61   337  3.87  3.78  2.49
10  0.23  59.4    61   338  4     4.05  2.39
# ℹ 53,930 more rows
…
Step 2: Use the mutate(), across(), and where() to take the sqrt of each numeric variable in diamonds.

Step 3: Use the summarise, across(), and where() to find the mean and standard deviation of each numeric variable in diamonds.

Step 4: Use summarise() and across() to find the mean and standard deviation of each numeric variable in diamonds, first using group_by(), across(), and where() to group by all factor variables.

11 Selector Helpers

Sometimes we want to use across() with many variables but not all variables or not all variables of a certain type. We can use a character vector to pick a subset of columns.

diamonds %>%
  mutate(across(.cols = c("x", "y", "z"), .fns = log))

# A tibble: 53,940 × 10
   carat cut       color clarity depth table price     x     y     z
   <dbl> <ord>     <ord> <ord>   <dbl> <dbl> <int> <dbl> <dbl> <dbl>
 1  0.23 Ideal     E     SI2      61.5    55   326  1.37  1.38 0.888
 2  0.21 Premium   E     SI1      59.8    61   326  1.36  1.35 0.837
 3  0.23 Good      E     VS1      56.9    65   327  1.40  1.40 0.837
 4  0.29 Premium   I     VS2      62.4    58   334  1.44  1.44 0.967
 5  0.31 Good      J     SI2      63.3    58   335  1.47  1.47 1.01 
 6  0.24 Very Good J     VVS2     62.8    57   336  1.37  1.38 0.908
 7  0.24 Very Good I     VVS1     62.3    57   336  1.37  1.38 0.904
 8  0.26 Very Good H     SI1      61.9    55   337  1.40  1.41 0.928
 9  0.22 Fair      E     VS2      65.1    61   337  1.35  1.33 0.912
10  0.23 Very Good H     VS1      59.4    61   338  1.39  1.40 0.871
# ℹ 53,930 more rows
…
