Intro to R - 3 Data Munging 2
…
Step 1: Use left_join() to join planes to flights. The common key is tailnum.

Step 2: Use anti_join() to see observations from flights that don’t have a match in planes and call the output object unmatched_flights. The common key is tailnum.

Step 2: Use slice() and pull() to extract the tailnum value in the first row of unmatched_flights. Call this variable first_unmatched_tailnum

Step 3: Use filter() to see if first_unmatched_tailnum is in planes. Hint: it shouldn’t be!

left_join(
  x = flights,
  y = planes,
  by = "tailnum"
)

# A tibble: 336,776 × 27
   year.x month   day dep_time sched_dep_time dep_delay arr_time sched_arr_time
    <int> <int> <int>    <int>          <int>     <dbl>    <int>          <int>
 1   2013     1     1      517            515         2      830            819
 2   2013     1     1      533            529         4      850            830
 3   2013     1     1      542            540         2      923            850
 4   2013     1     1      544            545        -1     1004           1022
 5   2013     1     1      554            600        -6      812            837
 6   2013     1     1      554            558        -4      740            728
 7   2013     1     1      555            600        -5      913            854
 8   2013     1     1      557            600        -3      709            723
 9   2013     1     1      557            600        -3      838            846
10   2013     1     1      558            600        -2      753            745
# ℹ 336,766 more rows
# ℹ 19 more variables: arr_delay <dbl>, carrier <chr>, flight <int>,
#   tailnum <chr>, origin <chr>, dest <chr>, air_time <dbl>, distance <dbl>,
#   hour <dbl>, minute <dbl>, time_hour <dttm>, year.y <int>, type <chr>,
#   manufacturer <chr>, model <chr>, engines <int>, seats <int>, speed <int>,
#   engine <chr>
…
